^C:\USERS\USER\DOCUMENTS\MAGSHIMIM\C++\6\HW6_OMERBENGERA\EX2\CIRCLE.CPP|C:\USERS\USER\DOCUMENTS\MAGSHIMIM\C++\6\HW6_OMERBENGERA\EX2\MAIN.CPP|C:\USERS\USER\DOCUMENTS\MAGSHIMIM\C++\6\HW6_OMERBENGERA\EX2\PARALLELOGRAM.CPP|C:\USERS\USER\DOCUMENTS\MAGSHIMIM\C++\6\HW6_OMERBENGERA\EX2\QUADRILATERAL.CPP|C:\USERS\USER\DOCUMENTS\MAGSHIMIM\C++\6\HW6_OMERBENGERA\EX2\RECTANGLE.CPP
C:\USERS\USER\DOCUMENTS\MAGSHIMIM\C++\6\HW6_OMERBENGERA\EX2\DEBUG\VC141.PDB
C:\USERS\USER\DOCUMENTS\MAGSHIMIM\C++\6\HW6_OMERBENGERA\EX2\DEBUG\VC141.IDB
C:\USERS\USER\DOCUMENTS\MAGSHIMIM\C++\6\HW6_OMERBENGERA\EX2\DEBUG\RECTANGLE.OBJ
C:\USERS\USER\DOCUMENTS\MAGSHIMIM\C++\6\HW6_OMERBENGERA\EX2\DEBUG\QUADRILATERAL.OBJ
C:\USERS\USER\DOCUMENTS\MAGSHIMIM\C++\6\HW6_OMERBENGERA\EX2\DEBUG\PARALLELOGRAM.OBJ
C:\USERS\USER\DOCUMENTS\MAGSHIMIM\C++\6\HW6_OMERBENGERA\EX2\DEBUG\MAIN.OBJ
C:\USERS\USER\DOCUMENTS\MAGSHIMIM\C++\6\HW6_OMERBENGERA\EX2\DEBUG\CIRCLE.OBJ
^C:\USERS\USER\DOCUMENTS\MAGSHIMIM\C++\6\HW6_OMERBENGERA\EX2\CIRCLE.CPP|C:\USERS\USER\DOCUMENTS\MAGSHIMIM\C++\6\HW6_OMERBENGERA\EX2\MAIN.CPP|C:\USERS\USER\DOCUMENTS\MAGSHIMIM\C++\6\HW6_OMERBENGERA\EX2\PARALLELOGRAM.CPP|C:\USERS\USER\DOCUMENTS\MAGSHIMIM\C++\6\HW6_OMERBENGERA\EX2\QUADRILATERAL.CPP
C:\USERS\USER\DOCUMENTS\MAGSHIMIM\C++\6\HW6_OMERBENGERA\EX2\DEBUG\VC141.PDB
C:\USERS\USER\DOCUMENTS\MAGSHIMIM\C++\6\HW6_OMERBENGERA\EX2\DEBUG\VC141.IDB
C:\USERS\USER\DOCUMENTS\MAGSHIMIM\C++\6\HW6_OMERBENGERA\EX2\DEBUG\QUADRILATERAL.OBJ
C:\USERS\USER\DOCUMENTS\MAGSHIMIM\C++\6\HW6_OMERBENGERA\EX2\DEBUG\PARALLELOGRAM.OBJ
C:\USERS\USER\DOCUMENTS\MAGSHIMIM\C++\6\HW6_OMERBENGERA\EX2\DEBUG\MAIN.OBJ
C:\USERS\USER\DOCUMENTS\MAGSHIMIM\C++\6\HW6_OMERBENGERA\EX2\DEBUG\CIRCLE.OBJ
^C:\USERS\USER\DOCUMENTS\MAGSHIMIM\C++\6\HW6_OMERBENGERA\EX2\CIRCLE.CPP|C:\USERS\USER\DOCUMENTS\MAGSHIMIM\C++\6\HW6_OMERBENGERA\EX2\MAIN.CPP|C:\USERS\USER\DOCUMENTS\MAGSHIMIM\C++\6\HW6_OMERBENGERA\EX2\PARALLELOGRAM.CPP|C:\USERS\USER\DOCUMENTS\MAGSHIMIM\C++\6\HW6_OMERBENGERA\EX2\QUADRILATERAL.CPP|C:\USERS\USER\DOCUMENTS\MAGSHIMIM\C++\6\HW6_OMERBENGERA\EX2\RECTANGLE.CPP|C:\USERS\USER\DOCUMENTS\MAGSHIMIM\C++\6\HW6_OMERBENGERA\EX2\SHAPE.CPP
C:\USERS\USER\DOCUMENTS\MAGSHIMIM\C++\6\HW6_OMERBENGERA\EX2\DEBUG\VC141.PDB
C:\USERS\USER\DOCUMENTS\MAGSHIMIM\C++\6\HW6_OMERBENGERA\EX2\DEBUG\VC141.IDB
C:\USERS\USER\DOCUMENTS\MAGSHIMIM\C++\6\HW6_OMERBENGERA\EX2\DEBUG\MAIN.OBJ
C:\USERS\USER\DOCUMENTS\MAGSHIMIM\C++\6\HW6_OMERBENGERA\EX2\DEBUG\SHAPE.OBJ
C:\USERS\USER\DOCUMENTS\MAGSHIMIM\C++\6\HW6_OMERBENGERA\EX2\DEBUG\RECTANGLE.OBJ
C:\USERS\USER\DOCUMENTS\MAGSHIMIM\C++\6\HW6_OMERBENGERA\EX2\DEBUG\QUADRILATERAL.OBJ
C:\USERS\USER\DOCUMENTS\MAGSHIMIM\C++\6\HW6_OMERBENGERA\EX2\DEBUG\PARALLELOGRAM.OBJ
C:\USERS\USER\DOCUMENTS\MAGSHIMIM\C++\6\HW6_OMERBENGERA\EX2\DEBUG\CIRCLE.OBJ
^C:\USERS\USER\DOCUMENTS\MAGSHIMIM\C++\6\HW6_OMERBENGERA\EX2\CIRCLE.CPP
C:\USERS\USER\DOCUMENTS\MAGSHIMIM\C++\6\HW6_OMERBENGERA\EX2\DEBUG\VC141.PDB
^C:\USERS\USER\DOCUMENTS\MAGSHIMIM\C++\6\HW6_OMERBENGERA\EX2\PARALLELOGRAM.CPP
C:\USERS\USER\DOCUMENTS\MAGSHIMIM\C++\6\HW6_OMERBENGERA\EX2\DEBUG\VC141.PDB
^C:\USERS\USER\DOCUMENTS\MAGSHIMIM\C++\6\HW6_OMERBENGERA\EX2\QUADRILATERAL.CPP
C:\USERS\USER\DOCUMENTS\MAGSHIMIM\C++\6\HW6_OMERBENGERA\EX2\DEBUG\VC141.PDB
^C:\USERS\USER\DOCUMENTS\MAGSHIMIM\C++\6\HW6_OMERBENGERA\EX2\RECTANGLE.CPP
C:\USERS\USER\DOCUMENTS\MAGSHIMIM\C++\6\HW6_OMERBENGERA\EX2\DEBUG\VC141.PDB
^C:\USERS\USER\DOCUMENTS\MAGSHIMIM\C++\6\HW6_OMERBENGERA\EX2\SHAPE.CPP
C:\USERS\USER\DOCUMENTS\MAGSHIMIM\C++\6\HW6_OMERBENGERA\EX2\DEBUG\VC141.PDB
C:\USERS\USER\DOCUMENTS\MAGSHIMIM\C++\6\HW6_OMERBENGERA\EX2\DEBUG\VC141.IDB
C:\USERS\USER\DOCUMENTS\MAGSHIMIM\C++\6\HW6_OMERBENGERA\EX2\DEBUG\SHAPE.OBJ
^C:\USERS\USER\DOCUMENTS\MAGSHIMIM\C++\6\HW6_OMERBENGERA\EX2\HEXAGON.CPP|C:\USERS\USER\DOCUMENTS\MAGSHIMIM\C++\6\HW6_OMERBENGERA\EX2\MAIN.CPP|C:\USERS\USER\DOCUMENTS\MAGSHIMIM\C++\6\HW6_OMERBENGERA\EX2\MATHUTILS.CPP|C:\USERS\USER\DOCUMENTS\MAGSHIMIM\C++\6\HW6_OMERBENGERA\EX2\PENTAGON.CPP
C:\USERS\USER\DOCUMENTS\MAGSHIMIM\C++\6\HW6_OMERBENGERA\EX2\DEBUG\VC141.PDB
C:\USERS\USER\DOCUMENTS\MAGSHIMIM\C++\6\HW6_OMERBENGERA\EX2\DEBUG\VC141.IDB
C:\USERS\USER\DOCUMENTS\MAGSHIMIM\C++\6\HW6_OMERBENGERA\EX2\DEBUG\PENTAGON.OBJ
C:\USERS\USER\DOCUMENTS\MAGSHIMIM\C++\6\HW6_OMERBENGERA\EX2\DEBUG\MATHUTILS.OBJ
C:\USERS\USER\DOCUMENTS\MAGSHIMIM\C++\6\HW6_OMERBENGERA\EX2\DEBUG\MAIN.OBJ
C:\USERS\USER\DOCUMENTS\MAGSHIMIM\C++\6\HW6_OMERBENGERA\EX2\DEBUG\HEXAGON.OBJ
^C:\USERS\USER\DOCUMENTS\MAGSHIMIM\C++\6\HW6_OMERBENGERA\EX2\PENTAGON.CPP
C:\USERS\USER\DOCUMENTS\MAGSHIMIM\C++\6\HW6_OMERBENGERA\EX2\DEBUG\VC141.PDB
^C:\USERS\USER\DOCUMENTS\MAGSHIMIM\C++\6\HW6_OMERBENGERA\EX2\MAIN.CPP
C:\USERS\USER\DOCUMENTS\MAGSHIMIM\C++\6\HW6_OMERBENGERA\EX2\DEBUG\VC141.PDB
C:\USERS\USER\DOCUMENTS\MAGSHIMIM\C++\6\HW6_OMERBENGERA\EX2\DEBUG\VC141.IDB
C:\USERS\USER\DOCUMENTS\MAGSHIMIM\C++\6\HW6_OMERBENGERA\EX2\DEBUG\MAIN.OBJ
^C:\USERS\USER\DOCUMENTS\MAGSHIMIM\C++\6\HW6_OMERBENGERA\EX2\HEXAGON.CPP
C:\USERS\USER\DOCUMENTS\MAGSHIMIM\C++\6\HW6_OMERBENGERA\EX2\DEBUG\VC141.PDB
C:\USERS\USER\DOCUMENTS\MAGSHIMIM\C++\6\HW6_OMERBENGERA\EX2\DEBUG\VC141.IDB
C:\USERS\USER\DOCUMENTS\MAGSHIMIM\C++\6\HW6_OMERBENGERA\EX2\DEBUG\HEXAGON.OBJ
^C:\USERS\USER\DOCUMENTS\MAGSHIMIM\C++\6\HW6_OMERBENGERA\EX2\MATHUTILS.CPP
C:\USERS\USER\DOCUMENTS\MAGSHIMIM\C++\6\HW6_OMERBENGERA\EX2\DEBUG\VC141.PDB
C:\USERS\USER\DOCUMENTS\MAGSHIMIM\C++\6\HW6_OMERBENGERA\EX2\DEBUG\VC141.IDB
C:\USERS\USER\DOCUMENTS\MAGSHIMIM\C++\6\HW6_OMERBENGERA\EX2\DEBUG\MATHUTILS.OBJ
