^C:\USERS\USER\DOCUMENTS\MAGSHIMIM\C++\6\HW6_OMERBENGERA\EX2\DEBUG\CIRCLE.OBJ|C:\USERS\USER\DOCUMENTS\MAGSHIMIM\C++\6\HW6_OMERBENGERA\EX2\DEBUG\HEXAGON.OBJ|C:\USERS\USER\DOCUMENTS\MAGSHIMIM\C++\6\HW6_OMERBENGERA\EX2\DEBUG\MAIN.OBJ|C:\USERS\USER\DOCUMENTS\MAGSHIMIM\C++\6\HW6_OMERBENGERA\EX2\DEBUG\MATHUTILS.OBJ|C:\USERS\USER\DOCUMENTS\MAGSHIMIM\C++\6\HW6_OMERBENGERA\EX2\DEBUG\PARALLELOGRAM.OBJ|C:\USERS\USER\DOCUMENTS\MAGSHIMIM\C++\6\HW6_OMERBENGERA\EX2\DEBUG\PENTAGON.OBJ|C:\USERS\USER\DOCUMENTS\MAGSHIMIM\C++\6\HW6_OMERBENGERA\EX2\DEBUG\QUADRILATERAL.OBJ|C:\USERS\USER\DOCUMENTS\MAGSHIMIM\C++\6\HW6_OMERBENGERA\EX2\DEBUG\RECTANGLE.OBJ|C:\USERS\USER\DOCUMENTS\MAGSHIMIM\C++\6\HW6_OMERBENGERA\EX2\DEBUG\SHAPE.OBJ
C:\USERS\USER\DOCUMENTS\MAGSHIMIM\C++\6\HW6_OMERBENGERA\DEBUG\EX2.EXE
C:\USERS\USER\DOCUMENTS\MAGSHIMIM\C++\6\HW6_OMERBENGERA\DEBUG\EX2.ILK
C:\USERS\USER\DOCUMENTS\MAGSHIMIM\C++\6\HW6_OMERBENGERA\DEBUG\EX2.PDB
