^C:\USERS\USER\DOCUMENTS\MAGSHIMIM\C++\6\HW6_OMERBENGERA\HW6_OMERBENGERA\BASIC_CALC.CPP
C:\USERS\USER\DOCUMENTS\MAGSHIMIM\C++\6\HW6_OMERBENGERA\HW6_OMERBENGERA\DEBUG\VC141.PDB
C:\USERS\USER\DOCUMENTS\MAGSHIMIM\C++\6\HW6_OMERBENGERA\HW6_OMERBENGERA\DEBUG\VC141.IDB
C:\USERS\USER\DOCUMENTS\MAGSHIMIM\C++\6\HW6_OMERBENGERA\HW6_OMERBENGERA\DEBUG\BASIC_CALC.OBJ
