^C:\USERS\USER\DOCUMENTS\MAGSHIMIM\C++\6\HW6_OMERBENGERA\EX1_B\EXCEP_CALC.CPP|C:\USERS\USER\DOCUMENTS\MAGSHIMIM\C++\6\HW6_OMERBENGERA\EX1_B\ILLEGELVALUEEXCEPTION.CPP
C:\USERS\USER\DOCUMENTS\MAGSHIMIM\C++\6\HW6_OMERBENGERA\EX1_B\DEBUG\VC141.PDB
C:\USERS\USER\DOCUMENTS\MAGSHIMIM\C++\6\HW6_OMERBENGERA\EX1_B\DEBUG\VC141.IDB
C:\USERS\USER\DOCUMENTS\MAGSHIMIM\C++\6\HW6_OMERBENGERA\EX1_B\DEBUG\ILLEGELVALUEEXCEPTION.OBJ
C:\USERS\USER\DOCUMENTS\MAGSHIMIM\C++\6\HW6_OMERBENGERA\EX1_B\DEBUG\EXCEP_CALC.OBJ
^C:\USERS\USER\DOCUMENTS\MAGSHIMIM\C++\6\HW6_OMERBENGERA\EX1_B\ILLEGELVALUEEXCEPTION.CPP
C:\USERS\USER\DOCUMENTS\MAGSHIMIM\C++\6\HW6_OMERBENGERA\EX1_B\DEBUG\VC141.PDB
^C:\USERS\USER\DOCUMENTS\MAGSHIMIM\C++\6\HW6_OMERBENGERA\EX1_B\EXCEP_CALC.CPP
C:\USERS\USER\DOCUMENTS\MAGSHIMIM\C++\6\HW6_OMERBENGERA\EX1_B\DEBUG\VC141.PDB
C:\USERS\USER\DOCUMENTS\MAGSHIMIM\C++\6\HW6_OMERBENGERA\EX1_B\DEBUG\VC141.IDB
C:\USERS\USER\DOCUMENTS\MAGSHIMIM\C++\6\HW6_OMERBENGERA\EX1_B\DEBUG\EXCEP_CALC.OBJ
